…
tratings <- readRDS("truth-ratings.rds")
```



The first thing we should do is look at the data and make sure we understand what all the columns mean.


```r
tratings
```

```
## # A tibble: 4,300 × 5
##    ID    repetition interval  mean_rating  days
##    <chr> <fct>      <fct>           <dbl> <int>
##  1 S0001 repeated   immediate        4.62     0
##  2 S0001 repeated   1 day            4.69     1
##  3 S0001 repeated   1 week           4.62     7
##  4 S0001 repeated   1 month          4.69    30
##  5 S0001 new        immediate        4.06     0
##  6 S0001 new        1 day            3.94     1
##  7 S0001 new        1 week           4        7
##  8 S0001 new        1 month          3.62    30
##  9 S0002 repeated   immediate        4.06     0
## 10 S0002 repeated   1 day            4.06     1
## # ℹ 4,290 more rows
```
…
```r
alldays <- tibble(days = 0:30) %>% 
  poly_add_columns(days, degree = 3, prefix = "d")

tratings3 <- tratings2 %>% 
  inner_join(alldays, "days")

# take a peek to make sure it makes sense
tratings3 %>%
  select(-interval)
```

```
## # A tibble: 4,300 × 8
##    ID    repetition mean_rating  days   rep     d1      d2     d3
##    <chr> <fct>            <dbl> <int> <dbl>  <dbl>   <dbl>  <dbl>
##  1 S0001 repeated          4.62     0   0.5 -0.301  0.365  -0.391
##  2 S0001 repeated          4.69     1   0.5 -0.281  0.292  -0.235
##  3 S0001 repeated          4.62     7   0.5 -0.161 -0.0402  0.205
##  4 S0001 repeated          4.69    30   0.5  0.301  0.365   0.391
##  5 S0001 new               4.06     0  -0.5 -0.301  0.365  -0.391
##  6 S0001 new               3.94     1  -0.5 -0.281  0.292  -0.235
##  7 S0001 new               4        7  -0.5 -0.161 -0.0402  0.205
##  8 S0001 new               3.62    30  -0.5  0.301  0.365   0.391
##  9 S0002 repeated          4.06     0   0.5 -0.301  0.365  -0.391
## 10 S0002 repeated          4.06     1   0.5 -0.281  0.292  -0.235
## # ℹ 4,290 more rows
```
…
