Chapter 7 Longitudinal analysis of multilevel data | Mixed-effects models for longitudinal data
…
The binary R file truth-ratings.rds has mean truth ratings for each participant in each condition (repeated, new) at each time point from the study. Because we have (up to) 8 mean ratings for each participant, one for each condition (repeated, new) and at each time point (immediate, 1 day, 1 week, and 1 month) these data are multilevel.

Download the file and initialize your R session using the code below.

library("lme4")
library("polypoly")
library("tidyverse")

tratings <- readRDS("truth-ratings.rds")

The first thing we should do is look at the data and make sure we understand what all the columns mean.

tratings

## # A tibble: 4,300 × 5
##    ID    repetition interval  mean_rating  days
##    <chr> <fct>      <fct>           <dbl> <int>
##  1 S0001 repeated   immediate        4.62     0
##  2 S0001 repeated   1 day            4.69     1
##  3 S0001 repeated   1 week           4.62     7
##  4 S0001 repeated   1 month          4.69    30
##  5 S0001 new        immediate        4.06     0
##  6 S0001 new        1 day            3.94     1
##  7 S0001 new        1 week           4        7
##  8 S0001 new        1 month          3.62    30
##  9 S0002 repeated   immediate        4.06     0
## 10 S0002 repeated   1 day            4.06     1
## # ℹ 4,290 more rows
…
We will use a cubic model. There are only 4 points in each condition, so this will fit the data perfectly, but also risks overfitting.

Now, we only have observations on days 0, 1, 7, and 30 for each participant, but we're going to want to plot a smooth function from 0 to 30 days, as if we made observations on every day. When we use the poly_add_columns() function from polypoly, the specific values of the polynomial predictors for these days will be different if the input is the sequence of integers 0 to 30 versus if the input is just the vector of 4 values (0, 1, 7, 30). So, what we'll need to do is generate predictor values for the full 31 days we want to plot, and then use an inner_join() to copy over the polynomial predictors for the four specific values of days in tratings2; i.e., 0, 1, 7, 30.

alldays <- tibble(days = 0:30) %>% 
  poly_add_columns(days, degree = 3, prefix = "d")

tratings3 <- tratings2 %>% 
  inner_join(alldays, "days")

# take a peek to make sure it makes sense
tratings3 %>%
  select(-interval)

## # A tibble: 4,300 × 8
##    ID    repetition mean_rating  days   rep     d1      d2     d3
##    <chr> <fct>            <dbl> <int> <dbl>  <dbl>   <dbl>  <dbl>
##  1 S0001 repeated          4.62     0   0.5 -0.301  0.365  -0.391
##  2 S0001 repeated          4.69     1   0.5 -0.281  0.292  -0.235
##  3 S0001 repeated          4.62     7   0.5 -0.161 -0.0402  0.205
##  4 S0001 repeated          4.69    30   0.5  0.301  0.365   0.391
##  5 S0001 new               4.06     0  -0.5 -0.301  0.365  -0.391
##  6 S0001 new               3.94     1  -0.5 -0.281  0.292  -0.235
##  7 S0001 new               4        7  -0.5 -0.161 -0.0402  0.205
##  8 S0001 new               3.62    30  -0.5  0.301  0.365   0.391
##  9 S0002 repeated          4.06     0   0.5 -0.301  0.365  -0.391
## 10 S0002 repeated          4.06     1   0.5 -0.281  0.292  -0.235
## # ℹ 4,290 more rows
…
